<svg width="20" height="20" viewBox="0 0 20 20" fill="none" xmlns="http://www.w3.org/2000/svg">
<path d="M18.053 7.84484C18.8183 10.7136 17.9911 13.7979 15.8936 15.8954C13.0073 18.7817 8.51439 19.1052 5.26831 16.8656L7.46013 14.6738C9.47611 15.7686 12.0563 15.4644 13.7594 13.7612C15.0976 12.4231 15.6252 10.4545 15.1364 8.62293C14.9213 7.81791 15.4002 6.99068 16.2056 6.77603C17.0106 6.56089 17.8379 7.03976 18.053 7.84484Z" fill="#159957"/>
<path d="M5.32623 12.5398L3.13441 14.7316C0.894783 11.4856 1.21833 6.99266 4.10464 4.10635C6.20211 2.00888 9.28726 1.18165 12.1556 1.94743C12.9607 2.16257 13.4396 2.9898 13.2244 3.79481C13.0097 4.60025 12.1826 5.07833 11.3771 4.86362C9.54635 4.37491 7.57691 4.90243 6.23876 6.24058C4.5357 7.94363 4.23141 10.5239 5.32623 12.5398Z" fill="#159957"/>
<path d="M10.743 9.25684C11.3325 9.84629 11.3325 10.8016 10.743 11.391L7.46016 14.6738C7.02095 14.4361 6.60903 14.1318 6.23857 13.7613C5.86806 13.3907 5.56376 12.9789 5.32599 12.5397L8.60883 9.25684C9.19828 8.66732 10.154 8.6678 10.743 9.25684Z" fill="#159957"/>
</svg>
